Final_14/Execution_Unit.sim/sim_1/behav/xsim/simulate.log
Vivado Simulator 2018.2
Time resolution is 1 ps
T =   20.0 ps | State = RESET  | Next State = FETCH  | PC = 00000000 | IR = 00000000
T =   30.0 ps | State = FETCH  | Next State = DECODE | PC = 00000000 | IR = 00000000
T =   40.0 ps | State = DECODE | Next State = R-Type | PC = 00000004 | IR = 0000001f
T =   51.0 ps | State = SETIE  | Next State = FETCH  | PC = 00000004 | IR = 0000001f
T =   60.0 ps | State = FETCH  | Next State = DECODE | PC = 00000004 | IR = 0000001f
T =   70.0 ps | State = DECODE | Next State =I/J-Type| PC = 00000008 | IR = 3c011234
T =   81.0 ps | State = LUI    | Next State = WB_imm | PC = 00000008 | IR = 3c011234
T =   90.0 ps | State = WB_imm | Next State = FETCH  | PC = 00000008 | IR = 3c011234
T =  100.0 ps | State = FETCH  | Next State = DECODE | PC = 00000008 | IR = 3c011234
T =  110.0 ps | State = DECODE | Next State =I/J-Type| PC = 0000000c | IR = 34215678
T =  121.0 ps | State = ORI    | Next State = WB_imm | PC = 0000000c | IR = 34215678
T =  130.0 ps | State = WB_imm | Next State = FETCH  | PC = 0000000c | IR = 34215678
T =  140.0 ps | State = FETCH  | Next State = DECODE | PC = 0000000c | IR = 34215678
T =  150.0 ps | State = DECODE | Next State =I/J-Type| PC = 00000010 | IR = 3c028765
T =  161.0 ps | State = LUI    | Next State = WB_imm | PC = 00000010 | IR = 3c028765
T =  170.0 ps | Interrupt Request Signal HIGH
T =  170.0 ps | State = WB_imm | Next State = FETCH  | PC = 00000010 | IR = 3c028765
T =  180.0 ps | State = FETCH  | Next State = INTR_1 | PC = 00000010 | IR = 3c028765
D_in: zzzzzzzz | ALU_OUT: 00000010 | dMem_out: zzzzzzzz
T =  190.0 ps | State = INTR_1 | Next State = INTR_2 | PC = 00000010 | IR = 3c028765
D_in: zzzzzzzz | ALU_OUT: 00000010 | dMem_out: zzzzzzzz
T =  200.0 ps | State = INTR_2 | Next State = INTR_3 | PC = 00000010 | IR = 3c028765
D_in: 00000200 | ALU_OUT: 000003fc | dMem_out: 00000200
T =  210.0 ps | State = INTR_3 | Next State = FETCH  | PC = 00000010 | IR = 3c028765
T =  210.0 ps | Interrupt Acknowledge Signal Received
T =  210.0 ps | Interrupt Request Signal LOW
T =  220.0 ps | State = FETCH  | Next State = DECODE | PC = 00000200 | IR = 3c028765
T =  230.0 ps | State = DECODE | Next State =I/J-Type| PC = 00000204 | IR = 3c101001
T =  241.0 ps | State = LUI    | Next State = WB_imm | PC = 00000204 | IR = 3c101001
T =  250.0 ps | State = WB_imm | Next State = FETCH  | PC = 00000204 | IR = 3c101001
T =  260.0 ps | State = FETCH  | Next State = DECODE | PC = 00000204 | IR = 3c101001
T =  270.0 ps | State = DECODE | Next State =I/J-Type| PC = 00000208 | IR = 361000c0
T =  281.0 ps | State = ORI    | Next State = WB_imm | PC = 00000208 | IR = 361000c0
T =  290.0 ps | State = WB_imm | Next State = FETCH  | PC = 00000208 | IR = 361000c0
T =  300.0 ps | State = FETCH  | Next State = DECODE | PC = 00000208 | IR = 361000c0
T =  310.0 ps | State = DECODE | Next State =I/J-Type| PC = 0000020c | IR = 3c118000
T =  321.0 ps | State = LUI    | Next State = WB_imm | PC = 0000020c | IR = 3c118000
T =  330.0 ps | State = WB_imm | Next State = FETCH  | PC = 0000020c | IR = 3c118000
T =  340.0 ps | State = FETCH  | Next State = DECODE | PC = 0000020c | IR = 3c118000
T =  350.0 ps | State = DECODE | Next State =I/J-Type| PC = 00000210 | IR = 3631ffff
T =  361.0 ps | State = ORI    | Next State = WB_imm | PC = 00000210 | IR = 3631ffff
T =  370.0 ps | State = WB_imm | Next State = FETCH  | PC = 00000210 | IR = 3631ffff
T =  380.0 ps | State = FETCH  | Next State = DECODE | PC = 00000210 | IR = 3631ffff
T =  390.0 ps | State = DECODE | Next State =I/J-Type| PC = 00000214 | IR = 20120010
T =  401.0 ps | State = ADDI   | Next State = WB_imm | PC = 00000214 | IR = 20120010
T =  410.0 ps | State = WB_imm | Next State = FETCH  | PC = 00000214 | IR = 20120010
T =  420.0 ps | State = FETCH  | Next State = DECODE | PC = 00000214 | IR = 20120010
T =  430.0 ps | State = DECODE | Next State =I/J-Type| PC = 00000218 | IR = 76110000
T =  440.0 ps | State =OUTPUT_1| Next State =OUTPUT_2| PC = 00000218 | IR = 76110000
T =  450.0 ps | State =OUTPUT_2| Next State = FETCH  | PC = 00000218 | IR = 76110000
T =  460.0 ps | State = FETCH  | Next State = DECODE | PC = 00000218 | IR = 76110000
T =  470.0 ps | State = DECODE | Next State = R-Type | PC = 0000021c | IR = 00118883
T =  481.0 ps | State = SRA    | Next State = WB_alu | PC = 0000021c | IR = 00118883
T =  490.0 ps | State = WB_alu | Next State = FETCH  | PC = 0000021c | IR = 00118883
T =  500.0 ps | State = FETCH  | Next State = DECODE | PC = 0000021c | IR = 00118883
T =  510.0 ps | State = DECODE | Next State =I/J-Type| PC = 00000220 | IR = 22100004
T =  521.0 ps | State = ADDI   | Next State = WB_imm | PC = 00000220 | IR = 22100004
T =  530.0 ps | State = WB_imm | Next State = FETCH  | PC = 00000220 | IR = 22100004
T =  540.0 ps | State = FETCH  | Next State = DECODE | PC = 00000220 | IR = 22100004
T =  550.0 ps | State = DECODE | Next State =I/J-Type| PC = 00000224 | IR = 2252ffff
T =  561.0 ps | State = ADDI   | Next State = WB_imm | PC = 00000224 | IR = 2252ffff
T =  570.0 ps | State = WB_imm | Next State = FETCH  | PC = 00000224 | IR = 2252ffff
T =  580.0 ps | State = FETCH  | Next State = DECODE | PC = 00000224 | IR = 2252ffff
T =  590.0 ps | State = DECODE | Next State = R-Type | PC = 00000228 | IR = 1640fffb
T =  601.0 ps | State = BNE_1  | Next State = BNE_2  | PC = 00000228 | IR = 1640fffb
T =  610.0 ps | State = BNE_2  | Next State = FETCH  | PC = 00000228 | IR = 1640fffb
T =  620.0 ps | State = FETCH  | Next State = DECODE | PC = 00000214 | IR = 1640fffb
T =  630.0 ps | State = DECODE | Next State =I/J-Type| PC = 00000218 | IR = 76110000
T =  640.0 ps | State =OUTPUT_1| Next State =OUTPUT_2| PC = 00000218 | IR = 76110000
T =  650.0 ps | State =OUTPUT_2| Next State = FETCH  | PC = 00000218 | IR = 76110000
T =  660.0 ps | State = FETCH  | Next State = DECODE | PC = 00000218 | IR = 76110000
T =  670.0 ps | State = DECODE | Next State = R-Type | PC = 0000021c | IR = 00118883
T =  681.0 ps | State = SRA    | Next State = WB_alu | PC = 0000021c | IR = 00118883
T =  690.0 ps | State = WB_alu | Next State = FETCH  | PC = 0000021c | IR = 00118883
T =  700.0 ps | State = FETCH  | Next State = DECODE | PC = 0000021c | IR = 00118883
T =  710.0 ps | State = DECODE | Next State =I/J-Type| PC = 00000220 | IR = 22100004
T =  721.0 ps | State = ADDI   | Next State = WB_imm | PC = 00000220 | IR = 22100004
T =  730.0 ps | State = WB_imm | Next State = FETCH  | PC = 00000220 | IR = 22100004
T =  740.0 ps | State = FETCH  | Next State = DECODE | PC = 00000220 | IR = 22100004
T =  750.0 ps | State = DECODE | Next State =I/J-Type| PC = 00000224 | IR = 2252ffff
T =  761.0 ps | State = ADDI   | Next State = WB_imm | PC = 00000224 | IR = 2252ffff
T =  770.0 ps | State = WB_imm | Next State = FETCH  | PC = 00000224 | IR = 2252ffff
T =  780.0 ps | State = FETCH  | Next State = DECODE | PC = 00000224 | IR = 2252ffff
T =  790.0 ps | State = DECODE | Next State = R-Type | PC = 00000228 | IR = 1640fffb
T =  801.0 ps | State = BNE_1  | Next State = BNE_2  | PC = 00000228 | IR = 1640fffb
T =  810.0 ps | State = BNE_2  | Next State = FETCH  | PC = 00000228 | IR = 1640fffb
T =  820.0 ps | State = FETCH  | Next State = DECODE | PC = 00000214 | IR = 1640fffb
T =  830.0 ps | State = DECODE | Next State =I/J-Type| PC = 00000218 | IR = 76110000
T =  840.0 ps | State =OUTPUT_1| Next State =OUTPUT_2| PC = 00000218 | IR = 76110000
T =  850.0 ps | State =OUTPUT_2| Next State = FETCH  | PC = 00000218 | IR = 76110000
T =  860.0 ps | State = FETCH  | Next State = DECODE | PC = 00000218 | IR = 76110000
T =  870.0 ps | State = DECODE | Next State = R-Type | PC = 0000021c | IR = 00118883
T =  881.0 ps | State = SRA    | Next State = WB_alu | PC = 0000021c | IR = 00118883
T =  890.0 ps | State = WB_alu | Next State = FETCH  | PC = 0000021c | IR = 00118883
T =  900.0 ps | State = FETCH  | Next State = DECODE | PC = 0000021c | IR = 00118883
T =  910.0 ps | State = DECODE | Next State =I/J-Type| PC = 00000220 | IR = 22100004
T =  921.0 ps | State = ADDI   | Next State = WB_imm | PC = 00000220 | IR = 22100004
T =  930.0 ps | State = WB_imm | Next State = FETCH  | PC = 00000220 | IR = 22100004
T =  940.0 ps | State = FETCH  | Next State = DECODE | PC = 00000220 | IR = 22100004
T =  950.0 ps | State = DECODE | Next State =I/J-Type| PC = 00000224 | IR = 2252ffff
T =  961.0 ps | State = ADDI   | Next State = WB_imm | PC = 00000224 | IR = 2252ffff
T =  970.0 ps | State = WB_imm | Next State = FETCH  | PC = 00000224 | IR = 2252ffff
T =  980.0 ps | State = FETCH  | Next State = DECODE | PC = 00000224 | IR = 2252ffff
T =  990.0 ps | State = DECODE | Next State = R-Type | PC = 00000228 | IR = 1640fffb
T = 1001.0 ps | State = BNE_1  | Next State = BNE_2  | PC = 00000228 | IR = 1640fffb
T = 1010.0 ps | State = BNE_2  | Next State = FETCH  | PC = 00000228 | IR = 1640fffb
T = 1020.0 ps | State = FETCH  | Next State = DECODE | PC = 00000214 | IR = 1640fffb
T = 1030.0 ps | State = DECODE | Next State =I/J-Type| PC = 00000218 | IR = 76110000
T = 1040.0 ps | State =OUTPUT_1| Next State =OUTPUT_2| PC = 00000218 | IR = 76110000
T = 1050.0 ps | State =OUTPUT_2| Next State = FETCH  | PC = 00000218 | IR = 76110000
T = 1060.0 ps | State = FETCH  | Next State = DECODE | PC = 00000218 | IR = 76110000
T = 1070.0 ps | State = DECODE | Next State = R-Type | PC = 0000021c | IR = 00118883
T = 1081.0 ps | State = SRA    | Next State = WB_alu | PC = 0000021c | IR = 00118883
T = 1090.0 ps | State = WB_alu | Next State = FETCH  | PC = 0000021c | IR = 00118883
T = 1100.0 ps | State = FETCH  | Next State = DECODE | PC = 0000021c | IR = 00118883
T = 1110.0 ps | State = DECODE | Next State =I/J-Type| PC = 00000220 | IR = 22100004
T = 1121.0 ps | State = ADDI   | Next State = WB_imm | PC = 00000220 | IR = 22100004
T = 1130.0 ps | State = WB_imm | Next State = FETCH  | PC = 00000220 | IR = 22100004
T = 1140.0 ps | State = FETCH  | Next State = DECODE | PC = 00000220 | IR = 22100004
T = 1150.0 ps | State = DECODE | Next State =I/J-Type| PC = 00000224 | IR = 2252ffff
T = 1161.0 ps | State = ADDI   | Next State = WB_imm | PC = 00000224 | IR = 2252ffff
T = 1170.0 ps | State = WB_imm | Next State = FETCH  | PC = 00000224 | IR = 2252ffff
T = 1180.0 ps | State = FETCH  | Next State = DECODE | PC = 00000224 | IR = 2252ffff
T = 1190.0 ps | State = DECODE | Next State = R-Type | PC = 00000228 | IR = 1640fffb
T = 1201.0 ps | State = BNE_1  | Next State = BNE_2  | PC = 00000228 | IR = 1640fffb
T = 1210.0 ps | State = BNE_2  | Next State = FETCH  | PC = 00000228 | IR = 1640fffb
T = 1220.0 ps | State = FETCH  | Next State = DECODE | PC = 00000214 | IR = 1640fffb
T = 1230.0 ps | State = DECODE | Next State =I/J-Type| PC = 00000218 | IR = 76110000
T = 1240.0 ps | State =OUTPUT_1| Next State =OUTPUT_2| PC = 00000218 | IR = 76110000
T = 1250.0 ps | State =OUTPUT_2| Next State = FETCH  | PC = 00000218 | IR = 76110000
T = 1260.0 ps | State = FETCH  | Next State = DECODE | PC = 00000218 | IR = 76110000
T = 1270.0 ps | State = DECODE | Next State = R-Type | PC = 0000021c | IR = 00118883
T = 1281.0 ps | State = SRA    | Next State = WB_alu | PC = 0000021c | IR = 00118883
T = 1290.0 ps | State = WB_alu | Next State = FETCH  | PC = 0000021c | IR = 00118883
T = 1300.0 ps | State = FETCH  | Next State = DECODE | PC = 0000021c | IR = 00118883
T = 1310.0 ps | State = DECODE | Next State =I/J-Type| PC = 00000220 | IR = 22100004
T = 1321.0 ps | State = ADDI   | Next State = WB_imm | PC = 00000220 | IR = 22100004
T = 1330.0 ps | State = WB_imm | Next State = FETCH  | PC = 00000220 | IR = 22100004
T = 1340.0 ps | State = FETCH  | Next State = DECODE | PC = 00000220 | IR = 22100004
T = 1350.0 ps | State = DECODE | Next State =I/J-Type| PC = 00000224 | IR = 2252ffff
T = 1361.0 ps | State = ADDI   | Next State = WB_imm | PC = 00000224 | IR = 2252ffff
T = 1370.0 ps | State = WB_imm | Next State = FETCH  | PC = 00000224 | IR = 2252ffff
T = 1380.0 ps | State = FETCH  | Next State = DECODE | PC = 00000224 | IR = 2252ffff
T = 1390.0 ps | State = DECODE | Next State = R-Type | PC = 00000228 | IR = 1640fffb
T = 1401.0 ps | State = BNE_1  | Next State = BNE_2  | PC = 00000228 | IR = 1640fffb
T = 1410.0 ps | State = BNE_2  | Next State = FETCH  | PC = 00000228 | IR = 1640fffb
T = 1420.0 ps | State = FETCH  | Next State = DECODE | PC = 00000214 | IR = 1640fffb
T = 1430.0 ps | State = DECODE | Next State =I/J-Type| PC = 00000218 | IR = 76110000
T = 1440.0 ps | State =OUTPUT_1| Next State =OUTPUT_2| PC = 00000218 | IR = 76110000
T = 1450.0 ps | State =OUTPUT_2| Next State = FETCH  | PC = 00000218 | IR = 76110000
T = 1460.0 ps | State = FETCH  | Next State = DECODE | PC = 00000218 | IR = 76110000
T = 1470.0 ps | State = DECODE | Next State = R-Type | PC = 0000021c | IR = 00118883
T = 1481.0 ps | State = SRA    | Next State = WB_alu | PC = 0000021c | IR = 00118883
T = 1490.0 ps | State = WB_alu | Next State = FETCH  | PC = 0000021c | IR = 00118883
T = 1500.0 ps | State = FETCH  | Next State = DECODE | PC = 0000021c | IR = 00118883
T = 1510.0 ps | State = DECODE | Next State =I/J-Type| PC = 00000220 | IR = 22100004
T = 1521.0 ps | State = ADDI   | Next State = WB_imm | PC = 00000220 | IR = 22100004
T = 1530.0 ps | State = WB_imm | Next State = FETCH  | PC = 00000220 | IR = 22100004
T = 1540.0 ps | State = FETCH  | Next State = DECODE | PC = 00000220 | IR = 22100004
T = 1550.0 ps | State = DECODE | Next State =I/J-Type| PC = 00000224 | IR = 2252ffff
T = 1561.0 ps | State = ADDI   | Next State = WB_imm | PC = 00000224 | IR = 2252ffff
T = 1570.0 ps | State = WB_imm | Next State = FETCH  | PC = 00000224 | IR = 2252ffff
T = 1580.0 ps | State = FETCH  | Next State = DECODE | PC = 00000224 | IR = 2252ffff
T = 1590.0 ps | State = DECODE | Next State = R-Type | PC = 00000228 | IR = 1640fffb
T = 1601.0 ps | State = BNE_1  | Next State = BNE_2  | PC = 00000228 | IR = 1640fffb
T = 1610.0 ps | State = BNE_2  | Next State = FETCH  | PC = 00000228 | IR = 1640fffb
T = 1620.0 ps | State = FETCH  | Next State = DECODE | PC = 00000214 | IR = 1640fffb
T = 1630.0 ps | State = DECODE | Next State =I/J-Type| PC = 00000218 | IR = 76110000
T = 1640.0 ps | State =OUTPUT_1| Next State =OUTPUT_2| PC = 00000218 | IR = 76110000
T = 1650.0 ps | State =OUTPUT_2| Next State = FETCH  | PC = 00000218 | IR = 76110000
T = 1660.0 ps | State = FETCH  | Next State = DECODE | PC = 00000218 | IR = 76110000
T = 1670.0 ps | State = DECODE | Next State = R-Type | PC = 0000021c | IR = 00118883
T = 1681.0 ps | State = SRA    | Next State = WB_alu | PC = 0000021c | IR = 00118883
T = 1690.0 ps | State = WB_alu | Next State = FETCH  | PC = 0000021c | IR = 00118883
T = 1700.0 ps | State = FETCH  | Next State = DECODE | PC = 0000021c | IR = 00118883
T = 1710.0 ps | State = DECODE | Next State =I/J-Type| PC = 00000220 | IR = 22100004
T = 1721.0 ps | State = ADDI   | Next State = WB_imm | PC = 00000220 | IR = 22100004
T = 1730.0 ps | State = WB_imm | Next State = FETCH  | PC = 00000220 | IR = 22100004
T = 1740.0 ps | State = FETCH  | Next State = DECODE | PC = 00000220 | IR = 22100004
T = 1750.0 ps | State = DECODE | Next State =I/J-Type| PC = 00000224 | IR = 2252ffff
T = 1761.0 ps | State = ADDI   | Next State = WB_imm | PC = 00000224 | IR = 2252ffff
T = 1770.0 ps | State = WB_imm | Next State = FETCH  | PC = 00000224 | IR = 2252ffff
T = 1780.0 ps | State = FETCH  | Next State = DECODE | PC = 00000224 | IR = 2252ffff
T = 1790.0 ps | State = DECODE | Next State = R-Type | PC = 00000228 | IR = 1640fffb
T = 1801.0 ps | State = BNE_1  | Next State = BNE_2  | PC = 00000228 | IR = 1640fffb
T = 1810.0 ps | State = BNE_2  | Next State = FETCH  | PC = 00000228 | IR = 1640fffb
T = 1820.0 ps | State = FETCH  | Next State = DECODE | PC = 00000214 | IR = 1640fffb
T = 1830.0 ps | State = DECODE | Next State =I/J-Type| PC = 00000218 | IR = 76110000
T = 1840.0 ps | State =OUTPUT_1| Next State =OUTPUT_2| PC = 00000218 | IR = 76110000
T = 1850.0 ps | State =OUTPUT_2| Next State = FETCH  | PC = 00000218 | IR = 76110000
T = 1860.0 ps | State = FETCH  | Next State = DECODE | PC = 00000218 | IR = 76110000
T = 1870.0 ps | State = DECODE | Next State = R-Type | PC = 0000021c | IR = 00118883
T = 1881.0 ps | State = SRA    | Next State = WB_alu | PC = 0000021c | IR = 00118883
T = 1890.0 ps | State = WB_alu | Next State = FETCH  | PC = 0000021c | IR = 00118883
T = 1900.0 ps | State = FETCH  | Next State = DECODE | PC = 0000021c | IR = 00118883
T = 1910.0 ps | State = DECODE | Next State =I/J-Type| PC = 00000220 | IR = 22100004
T = 1921.0 ps | State = ADDI   | Next State = WB_imm | PC = 00000220 | IR = 22100004
T = 1930.0 ps | State = WB_imm | Next State = FETCH  | PC = 00000220 | IR = 22100004
T = 1940.0 ps | State = FETCH  | Next State = DECODE | PC = 00000220 | IR = 22100004
T = 1950.0 ps | State = DECODE | Next State =I/J-Type| PC = 00000224 | IR = 2252ffff
T = 1961.0 ps | State = ADDI   | Next State = WB_imm | PC = 00000224 | IR = 2252ffff
T = 1970.0 ps | State = WB_imm | Next State = FETCH  | PC = 00000224 | IR = 2252ffff
T = 1980.0 ps | State = FETCH  | Next State = DECODE | PC = 00000224 | IR = 2252ffff
T = 1990.0 ps | State = DECODE | Next State = R-Type | PC = 00000228 | IR = 1640fffb
T = 2001.0 ps | State = BNE_1  | Next State = BNE_2  | PC = 00000228 | IR = 1640fffb
T = 2010.0 ps | State = BNE_2  | Next State = FETCH  | PC = 00000228 | IR = 1640fffb
T = 2020.0 ps | State = FETCH  | Next State = DECODE | PC = 00000214 | IR = 1640fffb
T = 2030.0 ps | State = DECODE | Next State =I/J-Type| PC = 00000218 | IR = 76110000
T = 2040.0 ps | State =OUTPUT_1| Next State =OUTPUT_2| PC = 00000218 | IR = 76110000
T = 2050.0 ps | State =OUTPUT_2| Next State = FETCH  | PC = 00000218 | IR = 76110000
T = 2060.0 ps | State = FETCH  | Next State = DECODE | PC = 00000218 | IR = 76110000
T = 2070.0 ps | State = DECODE | Next State = R-Type | PC = 0000021c | IR = 00118883
T = 2081.0 ps | State = SRA    | Next State = WB_alu | PC = 0000021c | IR = 00118883
T = 2090.0 ps | State = WB_alu | Next State = FETCH  | PC = 0000021c | IR = 00118883
T = 2100.0 ps | State = FETCH  | Next State = DECODE | PC = 0000021c | IR = 00118883
T = 2110.0 ps | State = DECODE | Next State =I/J-Type| PC = 00000220 | IR = 22100004
T = 2121.0 ps | State = ADDI   | Next State = WB_imm | PC = 00000220 | IR = 22100004
T = 2130.0 ps | State = WB_imm | Next State = FETCH  | PC = 00000220 | IR = 22100004
T = 2140.0 ps | State = FETCH  | Next State = DECODE | PC = 00000220 | IR = 22100004
T = 2150.0 ps | State = DECODE | Next State =I/J-Type| PC = 00000224 | IR = 2252ffff
T = 2161.0 ps | State = ADDI   | Next State = WB_imm | PC = 00000224 | IR = 2252ffff
T = 2170.0 ps | State = WB_imm | Next State = FETCH  | PC = 00000224 | IR = 2252ffff
T = 2180.0 ps | State = FETCH  | Next State = DECODE | PC = 00000224 | IR = 2252ffff
T = 2190.0 ps | State = DECODE | Next State = R-Type | PC = 00000228 | IR = 1640fffb
T = 2201.0 ps | State = BNE_1  | Next State = BNE_2  | PC = 00000228 | IR = 1640fffb
T = 2210.0 ps | State = BNE_2  | Next State = FETCH  | PC = 00000228 | IR = 1640fffb
T = 2220.0 ps | State = FETCH  | Next State = DECODE | PC = 00000214 | IR = 1640fffb
T = 2230.0 ps | State = DECODE | Next State =I/J-Type| PC = 00000218 | IR = 76110000
T = 2240.0 ps | State =OUTPUT_1| Next State =OUTPUT_2| PC = 00000218 | IR = 76110000
T = 2250.0 ps | State =OUTPUT_2| Next State = FETCH  | PC = 00000218 | IR = 76110000
T = 2260.0 ps | State = FETCH  | Next State = DECODE | PC = 00000218 | IR = 76110000
T = 2270.0 ps | State = DECODE | Next State = R-Type | PC = 0000021c | IR = 00118883
T = 2281.0 ps | State = SRA    | Next State = WB_alu | PC = 0000021c | IR = 00118883
T = 2290.0 ps | State = WB_alu | Next State = FETCH  | PC = 0000021c | IR = 00118883
T = 2300.0 ps | State = FETCH  | Next State = DECODE | PC = 0000021c | IR = 00118883
T = 2310.0 ps | State = DECODE | Next State =I/J-Type| PC = 00000220 | IR = 22100004
T = 2321.0 ps | State = ADDI   | Next State = WB_imm | PC = 00000220 | IR = 22100004
T = 2330.0 ps | State = WB_imm | Next State = FETCH  | PC = 00000220 | IR = 22100004
T = 2340.0 ps | State = FETCH  | Next State = DECODE | PC = 00000220 | IR = 22100004
T = 2350.0 ps | State = DECODE | Next State =I/J-Type| PC = 00000224 | IR = 2252ffff
T = 2361.0 ps | State = ADDI   | Next State = WB_imm | PC = 00000224 | IR = 2252ffff
T = 2370.0 ps | State = WB_imm | Next State = FETCH  | PC = 00000224 | IR = 2252ffff
T = 2380.0 ps | State = FETCH  | Next State = DECODE | PC = 00000224 | IR = 2252ffff
T = 2390.0 ps | State = DECODE | Next State = R-Type | PC = 00000228 | IR = 1640fffb
T = 2401.0 ps | State = BNE_1  | Next State = BNE_2  | PC = 00000228 | IR = 1640fffb
T = 2410.0 ps | State = BNE_2  | Next State = FETCH  | PC = 00000228 | IR = 1640fffb
T = 2420.0 ps | State = FETCH  | Next State = DECODE | PC = 00000214 | IR = 1640fffb
T = 2430.0 ps | State = DECODE | Next State =I/J-Type| PC = 00000218 | IR = 76110000
T = 2440.0 ps | State =OUTPUT_1| Next State =OUTPUT_2| PC = 00000218 | IR = 76110000
T = 2450.0 ps | State =OUTPUT_2| Next State = FETCH  | PC = 00000218 | IR = 76110000
T = 2460.0 ps | State = FETCH  | Next State = DECODE | PC = 00000218 | IR = 76110000
T = 2470.0 ps | State = DECODE | Next State = R-Type | PC = 0000021c | IR = 00118883
T = 2481.0 ps | State = SRA    | Next State = WB_alu | PC = 0000021c | IR = 00118883
T = 2490.0 ps | State = WB_alu | Next State = FETCH  | PC = 0000021c | IR = 00118883
T = 2500.0 ps | State = FETCH  | Next State = DECODE | PC = 0000021c | IR = 00118883
T = 2510.0 ps | State = DECODE | Next State =I/J-Type| PC = 00000220 | IR = 22100004
T = 2521.0 ps | State = ADDI   | Next State = WB_imm | PC = 00000220 | IR = 22100004
T = 2530.0 ps | State = WB_imm | Next State = FETCH  | PC = 00000220 | IR = 22100004
T = 2540.0 ps | State = FETCH  | Next State = DECODE | PC = 00000220 | IR = 22100004
T = 2550.0 ps | State = DECODE | Next State =I/J-Type| PC = 00000224 | IR = 2252ffff
T = 2561.0 ps | State = ADDI   | Next State = WB_imm | PC = 00000224 | IR = 2252ffff
T = 2570.0 ps | State = WB_imm | Next State = FETCH  | PC = 00000224 | IR = 2252ffff
T = 2580.0 ps | State = FETCH  | Next State = DECODE | PC = 00000224 | IR = 2252ffff
T = 2590.0 ps | State = DECODE | Next State = R-Type | PC = 00000228 | IR = 1640fffb
T = 2601.0 ps | State = BNE_1  | Next State = BNE_2  | PC = 00000228 | IR = 1640fffb
T = 2610.0 ps | State = BNE_2  | Next State = FETCH  | PC = 00000228 | IR = 1640fffb
T = 2620.0 ps | State = FETCH  | Next State = DECODE | PC = 00000214 | IR = 1640fffb
T = 2630.0 ps | State = DECODE | Next State =I/J-Type| PC = 00000218 | IR = 76110000
T = 2640.0 ps | State =OUTPUT_1| Next State =OUTPUT_2| PC = 00000218 | IR = 76110000
T = 2650.0 ps | State =OUTPUT_2| Next State = FETCH  | PC = 00000218 | IR = 76110000
T = 2660.0 ps | State = FETCH  | Next State = DECODE | PC = 00000218 | IR = 76110000
T = 2670.0 ps | State = DECODE | Next State = R-Type | PC = 0000021c | IR = 00118883
T = 2681.0 ps | State = SRA    | Next State = WB_alu | PC = 0000021c | IR = 00118883
T = 2690.0 ps | State = WB_alu | Next State = FETCH  | PC = 0000021c | IR = 00118883
T = 2700.0 ps | State = FETCH  | Next State = DECODE | PC = 0000021c | IR = 00118883
T = 2710.0 ps | State = DECODE | Next State =I/J-Type| PC = 00000220 | IR = 22100004
T = 2721.0 ps | State = ADDI   | Next State = WB_imm | PC = 00000220 | IR = 22100004
T = 2730.0 ps | State = WB_imm | Next State = FETCH  | PC = 00000220 | IR = 22100004
T = 2740.0 ps | State = FETCH  | Next State = DECODE | PC = 00000220 | IR = 22100004
T = 2750.0 ps | State = DECODE | Next State =I/J-Type| PC = 00000224 | IR = 2252ffff
T = 2761.0 ps | State = ADDI   | Next State = WB_imm | PC = 00000224 | IR = 2252ffff
T = 2770.0 ps | State = WB_imm | Next State = FETCH  | PC = 00000224 | IR = 2252ffff
T = 2780.0 ps | State = FETCH  | Next State = DECODE | PC = 00000224 | IR = 2252ffff
T = 2790.0 ps | State = DECODE | Next State = R-Type | PC = 00000228 | IR = 1640fffb
T = 2801.0 ps | State = BNE_1  | Next State = BNE_2  | PC = 00000228 | IR = 1640fffb
T = 2810.0 ps | State = BNE_2  | Next State = FETCH  | PC = 00000228 | IR = 1640fffb
T = 2820.0 ps | State = FETCH  | Next State = DECODE | PC = 00000214 | IR = 1640fffb
T = 2830.0 ps | State = DECODE | Next State =I/J-Type| PC = 00000218 | IR = 76110000
T = 2840.0 ps | State =OUTPUT_1| Next State =OUTPUT_2| PC = 00000218 | IR = 76110000
T = 2850.0 ps | State =OUTPUT_2| Next State = FETCH  | PC = 00000218 | IR = 76110000
T = 2860.0 ps | State = FETCH  | Next State = DECODE | PC = 00000218 | IR = 76110000
T = 2870.0 ps | State = DECODE | Next State = R-Type | PC = 0000021c | IR = 00118883
T = 2881.0 ps | State = SRA    | Next State = WB_alu | PC = 0000021c | IR = 00118883
T = 2890.0 ps | State = WB_alu | Next State = FETCH  | PC = 0000021c | IR = 00118883
T = 2900.0 ps | State = FETCH  | Next State = DECODE | PC = 0000021c | IR = 00118883
T = 2910.0 ps | State = DECODE | Next State =I/J-Type| PC = 00000220 | IR = 22100004
T = 2921.0 ps | State = ADDI   | Next State = WB_imm | PC = 00000220 | IR = 22100004
T = 2930.0 ps | State = WB_imm | Next State = FETCH  | PC = 00000220 | IR = 22100004
T = 2940.0 ps | State = FETCH  | Next State = DECODE | PC = 00000220 | IR = 22100004
T = 2950.0 ps | State = DECODE | Next State =I/J-Type| PC = 00000224 | IR = 2252ffff
T = 2961.0 ps | State = ADDI   | Next State = WB_imm | PC = 00000224 | IR = 2252ffff
T = 2970.0 ps | State = WB_imm | Next State = FETCH  | PC = 00000224 | IR = 2252ffff
T = 2980.0 ps | State = FETCH  | Next State = DECODE | PC = 00000224 | IR = 2252ffff
T = 2990.0 ps | State = DECODE | Next State = R-Type | PC = 00000228 | IR = 1640fffb
T = 3001.0 ps | State = BNE_1  | Next State = BNE_2  | PC = 00000228 | IR = 1640fffb
T = 3010.0 ps | State = BNE_2  | Next State = FETCH  | PC = 00000228 | IR = 1640fffb
T = 3020.0 ps | State = FETCH  | Next State = DECODE | PC = 00000214 | IR = 1640fffb
T = 3030.0 ps | State = DECODE | Next State =I/J-Type| PC = 00000218 | IR = 76110000
T = 3040.0 ps | State =OUTPUT_1| Next State =OUTPUT_2| PC = 00000218 | IR = 76110000
T = 3050.0 ps | State =OUTPUT_2| Next State = FETCH  | PC = 00000218 | IR = 76110000
T = 3060.0 ps | State = FETCH  | Next State = DECODE | PC = 00000218 | IR = 76110000
T = 3070.0 ps | State = DECODE | Next State = R-Type | PC = 0000021c | IR = 00118883
T = 3081.0 ps | State = SRA    | Next State = WB_alu | PC = 0000021c | IR = 00118883
T = 3090.0 ps | State = WB_alu | Next State = FETCH  | PC = 0000021c | IR = 00118883
T = 3100.0 ps | State = FETCH  | Next State = DECODE | PC = 0000021c | IR = 00118883
T = 3110.0 ps | State = DECODE | Next State =I/J-Type| PC = 00000220 | IR = 22100004
T = 3121.0 ps | State = ADDI   | Next State = WB_imm | PC = 00000220 | IR = 22100004
T = 3130.0 ps | State = WB_imm | Next State = FETCH  | PC = 00000220 | IR = 22100004
T = 3140.0 ps | State = FETCH  | Next State = DECODE | PC = 00000220 | IR = 22100004
T = 3150.0 ps | State = DECODE | Next State =I/J-Type| PC = 00000224 | IR = 2252ffff
T = 3161.0 ps | State = ADDI   | Next State = WB_imm | PC = 00000224 | IR = 2252ffff
T = 3170.0 ps | State = WB_imm | Next State = FETCH  | PC = 00000224 | IR = 2252ffff
