Execution_Unit_modified/Execution_Unit.sim/sim_1/behav/xsim/simulate.log
Vivado Simulator 2018.2
Time resolution is 1 ps
T =   30.0 ps | State = RESET  | Next State = FETCH | PC = 00000000 | IR = 00000000
T =   40.0 ps | State = FETCH  | Next State = DECODE | PC = 00000000 | IR = 00000000
T =   50.0 ps | State = DECODE | Next State = I/J-Type | PC = 00000004 | IR = 3c011234
T =   60.0 ps | State = LUI    | Next State = WB_imm | PC = 00000004 | IR = 3c011234
T =   70.0 ps | State = WB_imm | Next State = FETCH | PC = 00000004 | IR = 3c011234
T =   80.0 ps | State = FETCH  | Next State = DECODE | PC = 00000004 | IR = 3c011234
T =   90.0 ps | State = DECODE | Next State = I/J-Type | PC = 00000008 | IR = 34215678
T =  100.0 ps | State = ORI    | Next State = WB_imm | PC = 00000008 | IR = 34215678
T =  110.0 ps | State = WB_imm | Next State = FETCH | PC = 00000008 | IR = 34215678
T =  120.0 ps | State = FETCH  | Next State = DECODE | PC = 00000008 | IR = 34215678
T =  130.0 ps | State = DECODE | Next State = I/J-Type | PC = 0000000c | IR = 3c028765
T =  140.0 ps | State = LUI    | Next State = WB_imm | PC = 0000000c | IR = 3c028765
T =  150.0 ps | State = WB_imm | Next State = FETCH | PC = 0000000c | IR = 3c028765
T =  160.0 ps | State = FETCH  | Next State = DECODE | PC = 0000000c | IR = 3c028765
T =  170.0 ps | State = DECODE | Next State = I/J-Type | PC = 00000010 | IR = 34424321
T =  180.0 ps | State = ORI    | Next State = WB_imm | PC = 00000010 | IR = 34424321
T =  190.0 ps | State = WB_imm | Next State = FETCH | PC = 00000010 | IR = 34424321
T =  200.0 ps | State = FETCH  | Next State = DECODE | PC = 00000010 | IR = 34424321
T =  210.0 ps | State = DECODE | Next State = I/J-Type | PC = 00000014 | IR = 3c03abcd
T =  220.0 ps | State = LUI    | Next State = WB_imm | PC = 00000014 | IR = 3c03abcd
T =  230.0 ps | State = WB_imm | Next State = FETCH | PC = 00000014 | IR = 3c03abcd
T =  240.0 ps | State = FETCH  | Next State = DECODE | PC = 00000014 | IR = 3c03abcd
T =  250.0 ps | State = DECODE | Next State = I/J-Type | PC = 00000018 | IR = 3463ef01
T =  260.0 ps | State = ORI    | Next State = WB_imm | PC = 00000018 | IR = 3463ef01
T =  270.0 ps | State = WB_imm | Next State = FETCH | PC = 00000018 | IR = 3463ef01
T =  280.0 ps | State = FETCH  | Next State = DECODE | PC = 00000018 | IR = 3463ef01
T =  290.0 ps | State = DECODE | Next State = I/J-Type | PC = 0000001c | IR = 3c0401fe
T =  300.0 ps | State = LUI    | Next State = WB_imm | PC = 0000001c | IR = 3c0401fe
T =  310.0 ps | State = WB_imm | Next State = FETCH | PC = 0000001c | IR = 3c0401fe
T =  320.0 ps | State = FETCH  | Next State = DECODE | PC = 0000001c | IR = 3c0401fe
T =  330.0 ps | State = DECODE | Next State = I/J-Type | PC = 00000020 | IR = 3484dcba
T =  340.0 ps | State = ORI    | Next State = WB_imm | PC = 00000020 | IR = 3484dcba
T =  350.0 ps | State = WB_imm | Next State = FETCH | PC = 00000020 | IR = 3484dcba
T =  360.0 ps | State = FETCH  | Next State = DECODE | PC = 00000020 | IR = 3484dcba
T =  370.0 ps | State = DECODE | Next State = I/J-Type | PC = 00000024 | IR = 3c055a5a
T =  380.0 ps | State = LUI    | Next State = WB_imm | PC = 00000024 | IR = 3c055a5a
T =  390.0 ps | State = WB_imm | Next State = FETCH | PC = 00000024 | IR = 3c055a5a
T =  400.0 ps | State = FETCH  | Next State = DECODE | PC = 00000024 | IR = 3c055a5a
T =  410.0 ps | State = DECODE | Next State = I/J-Type | PC = 00000028 | IR = 34a55a5a
T =  420.0 ps | State = ORI    | Next State = WB_imm | PC = 00000028 | IR = 34a55a5a
T =  430.0 ps | State = WB_imm | Next State = FETCH | PC = 00000028 | IR = 34a55a5a
T =  440.0 ps | State = FETCH  | Next State = DECODE | PC = 00000028 | IR = 34a55a5a
T =  450.0 ps | State = DECODE | Next State = I/J-Type | PC = 0000002c | IR = 3c06ffff
T =  460.0 ps | State = LUI    | Next State = WB_imm | PC = 0000002c | IR = 3c06ffff
T =  470.0 ps | State = WB_imm | Next State = FETCH | PC = 0000002c | IR = 3c06ffff
T =  480.0 ps | State = FETCH  | Next State = DECODE | PC = 0000002c | IR = 3c06ffff
T =  490.0 ps | State = DECODE | Next State = I/J-Type | PC = 00000030 | IR = 34c6ffff
T =  500.0 ps | State = ORI    | Next State = WB_imm | PC = 00000030 | IR = 34c6ffff
T =  510.0 ps | State = WB_imm | Next State = FETCH | PC = 00000030 | IR = 34c6ffff
T =  520.0 ps | State = FETCH  | Next State = DECODE | PC = 00000030 | IR = 34c6ffff
T =  530.0 ps | State = DECODE | Next State = I/J-Type | PC = 00000034 | IR = 3c07ffff
T =  540.0 ps | State = LUI    | Next State = WB_imm | PC = 00000034 | IR = 3c07ffff
T =  550.0 ps | State = WB_imm | Next State = FETCH | PC = 00000034 | IR = 3c07ffff
T =  560.0 ps | State = FETCH  | Next State = DECODE | PC = 00000034 | IR = 3c07ffff
T =  570.0 ps | State = DECODE | Next State = I/J-Type | PC = 00000038 | IR = 34e7ff00
T =  580.0 ps | State = ORI    | Next State = WB_imm | PC = 00000038 | IR = 34e7ff00
T =  590.0 ps | State = WB_imm | Next State = FETCH | PC = 00000038 | IR = 34e7ff00
T =  600.0 ps | State = FETCH  | Next State = DECODE | PC = 00000038 | IR = 34e7ff00
T =  610.0 ps | State = DECODE | Next State = R-Type | PC = 0000003c | IR = 00c74020
T =  620.0 ps | State = ADD    | Next State = WB_alu | PC = 0000003c | IR = 00c74020
T =  630.0 ps | State = WB_alu | Next State = FETCH | PC = 0000003c | IR = 00c74020
T =  640.0 ps | State = FETCH  | Next State = DECODE | PC = 0000003c | IR = 00c74020
T =  650.0 ps | State = DECODE | Next State = R-Type | PC = 00000040 | IR = 00c84820
T =  660.0 ps | State = ADD    | Next State = WB_alu | PC = 00000040 | IR = 00c84820
T =  670.0 ps | State = WB_alu | Next State = FETCH | PC = 00000040 | IR = 00c84820
T =  680.0 ps | State = FETCH  | Next State = DECODE | PC = 00000040 | IR = 00c84820
T =  690.0 ps | State = DECODE | Next State = R-Type | PC = 00000044 | IR = 00c95020
T =  700.0 ps | State = ADD    | Next State = WB_alu | PC = 00000044 | IR = 00c95020
T =  710.0 ps | State = WB_alu | Next State = FETCH | PC = 00000044 | IR = 00c95020
T =  720.0 ps | State = FETCH  | Next State = DECODE | PC = 00000044 | IR = 00c95020
T =  730.0 ps | State = DECODE | Next State = R-Type | PC = 00000048 | IR = 00ca5820
T =  740.0 ps | State = ADD    | Next State = WB_alu | PC = 00000048 | IR = 00ca5820
T =  750.0 ps | State = WB_alu | Next State = FETCH | PC = 00000048 | IR = 00ca5820
T =  760.0 ps | State = FETCH  | Next State = DECODE | PC = 00000048 | IR = 00ca5820
T =  770.0 ps | State = DECODE | Next State = R-Type | PC = 0000004c | IR = 00cb6020
T =  780.0 ps | State = ADD    | Next State = WB_alu | PC = 0000004c | IR = 00cb6020
T =  790.0 ps | State = WB_alu | Next State = FETCH | PC = 0000004c | IR = 00cb6020
T =  800.0 ps | State = FETCH  | Next State = DECODE | PC = 0000004c | IR = 00cb6020
T =  810.0 ps | State = DECODE | Next State = R-Type | PC = 00000050 | IR = 00cc6820
T =  820.0 ps | State = ADD    | Next State = WB_alu | PC = 00000050 | IR = 00cc6820
T =  830.0 ps | State = WB_alu | Next State = FETCH | PC = 00000050 | IR = 00cc6820
T =  840.0 ps | State = FETCH  | Next State = DECODE | PC = 00000050 | IR = 00cc6820
T =  850.0 ps | State = DECODE | Next State = R-Type | PC = 00000054 | IR = 00cd7020
T =  860.0 ps | State = ADD    | Next State = WB_alu | PC = 00000054 | IR = 00cd7020
T =  870.0 ps | State = WB_alu | Next State = FETCH | PC = 00000054 | IR = 00cd7020
T =  880.0 ps | State = FETCH  | Next State = DECODE | PC = 00000054 | IR = 00cd7020
T =  890.0 ps | State = DECODE | Next State = R-Type | PC = 00000058 | IR = 00ce7820
T =  900.0 ps | State = ADD    | Next State = WB_alu | PC = 00000058 | IR = 00ce7820
T =  910.0 ps | State = WB_alu | Next State = FETCH | PC = 00000058 | IR = 00ce7820
T =  920.0 ps | State = FETCH  | Next State = DECODE | PC = 00000058 | IR = 00ce7820
T =  930.0 ps | State = DECODE | Next State = I/J-Type | PC = 0000005c | IR = 3c071001
T =  940.0 ps | State = LUI    | Next State = WB_imm | PC = 0000005c | IR = 3c071001
T =  950.0 ps | State = WB_imm | Next State = FETCH | PC = 0000005c | IR = 3c071001
T =  960.0 ps | State = FETCH  | Next State = DECODE | PC = 0000005c | IR = 3c071001
T =  970.0 ps | State = DECODE | Next State = I/J-Type | PC = 00000060 | IR = 34e703f0
T =  980.0 ps | State = ORI    | Next State = WB_imm | PC = 00000060 | IR = 34e703f0
T =  990.0 ps | State = WB_imm | Next State = FETCH | PC = 00000060 | IR = 34e703f0
T = 1000.0 ps | State = FETCH  | Next State = DECODE | PC = 00000060 | IR = 34e703f0
T = 1010.0 ps | State = DECODE | Next State = I/J-Type | PC = 00000064 | IR = acef0000
T = 1020.0 ps | State = SW     | Next State = WB_mem | PC = 00000064 | IR = acef0000
T = 1030.0 ps | State = WB_mem | Next State = FETCH | PC = 00000064 | IR = acef0000
T = 1040.0 ps | State = FETCH  | Next State = DECODE | PC = 00000064 | IR = acef0000
T = 1050.0 ps | State = DECODE | Next State = R-Type | PC = 00000068 | IR = 0000000d
BREAK INSTRUCTION FETCHED 1055.0 ps
 
 
D i s p l a y i n g   C o n t e n t s   o f   R e g f i l e
R[ 0] = 00000000
R[ 1] = 12345678
R[ 2] = 87654321
R[ 3] = abcdef01
R[ 4] = 01fedcba
R[ 5] = 5a5a5a5a
R[ 6] = ffffffff
R[ 7] = 100103f0
R[ 8] = fffffeff
R[ 9] = fffffefe
R[10] = fffffefd
R[11] = fffffefc
R[12] = fffffefb
R[13] = fffffefa
R[14] = fffffef9
R[15] = fffffef8
 
D a t a   M e m o r y   a f t e r   B r e a k
 
dMem[3f0] = 0xfffffef8
 
$finish called at time : 1060 ns : File "C:/Users/Jesus Luciano/Desktop/MIPS_CPU/Execution_Unit/Execution_Unit.srcs/sources_1/new/MCU.v" Line 274
