CPU_TB_Results/module_01.log
Vivado Simulator 2018.2
Time resolution is 1 ps
T =   30.0 ps | State = RESET  | Next State = FETCH  | PC = 00000000 | IR = 00000000
T =   40.0 ps | State = FETCH  | Next State = DECODE | PC = 00000000 | IR = 00000000
T =   50.0 ps | State = DECODE | Next State =I/J-Type| PC = 00000004 | IR = 3c011234
T =   61.0 ps | State = LUI    | Next State = WB_imm | PC = 00000004 | IR = 3c011234
T =   70.0 ps | State = WB_imm | Next State = FETCH  | PC = 00000004 | IR = 3c011234
T =   80.0 ps | State = FETCH  | Next State = DECODE | PC = 00000004 | IR = 3c011234
T =   90.0 ps | State = DECODE | Next State =I/J-Type| PC = 00000008 | IR = 34215678
T =  101.0 ps | State = ORI    | Next State = WB_imm | PC = 00000008 | IR = 34215678
T =  110.0 ps | State = WB_imm | Next State = FETCH  | PC = 00000008 | IR = 34215678
T =  120.0 ps | State = FETCH  | Next State = DECODE | PC = 00000008 | IR = 34215678
T =  130.0 ps | State = DECODE | Next State =I/J-Type| PC = 0000000c | IR = 3c028765
T =  141.0 ps | State = LUI    | Next State = WB_imm | PC = 0000000c | IR = 3c028765
T =  150.0 ps | State = WB_imm | Next State = FETCH  | PC = 0000000c | IR = 3c028765
T =  160.0 ps | State = FETCH  | Next State = DECODE | PC = 0000000c | IR = 3c028765
T =  170.0 ps | State = DECODE | Next State =I/J-Type| PC = 00000010 | IR = 34424321
T =  181.0 ps | State = ORI    | Next State = WB_imm | PC = 00000010 | IR = 34424321
T =  190.0 ps | State = WB_imm | Next State = FETCH  | PC = 00000010 | IR = 34424321
T =  200.0 ps | State = FETCH  | Next State = DECODE | PC = 00000010 | IR = 34424321
T =  210.0 ps | State = DECODE | Next State = R-Type | PC = 00000014 | IR = 00011820
T =  221.0 ps | State = ADD    | Next State = WB_alu | PC = 00000014 | IR = 00011820
T =  230.0 ps | State = WB_alu | Next State = FETCH  | PC = 00000014 | IR = 00011820
T =  240.0 ps | State = FETCH  | Next State = DECODE | PC = 00000014 | IR = 00011820
T =  250.0 ps | State = DECODE | Next State = R-Type | PC = 00000018 | IR = 10220001
T =  261.0 ps | State = BEQ_1  | Next State = BEQ_2  | PC = 00000018 | IR = 10220001
T =  270.0 ps | State = BEQ_2  | Next State = FETCH  | PC = 00000018 | IR = 10220001
T =  280.0 ps | State = FETCH  | Next State = DECODE | PC = 00000018 | IR = 10220001
T =  290.0 ps | State = DECODE | Next State = R-Type | PC = 0000001c | IR = 10230003
T =  301.0 ps | State = BEQ_1  | Next State = BEQ_2  | PC = 0000001c | IR = 10230003
T =  310.0 ps | State = BEQ_2  | Next State = FETCH  | PC = 0000001c | IR = 10230003
T =  320.0 ps | State = FETCH  | Next State = DECODE | PC = 00000028 | IR = 10230003
T =  330.0 ps | State = DECODE | Next State = R-Type | PC = 0000002c | IR = 00007020
T =  341.0 ps | State = ADD    | Next State = WB_alu | PC = 0000002c | IR = 00007020
T =  350.0 ps | State = WB_alu | Next State = FETCH  | PC = 0000002c | IR = 00007020
T =  360.0 ps | State = FETCH  | Next State = DECODE | PC = 0000002c | IR = 00007020
T =  370.0 ps | State = DECODE | Next State = R-Type | PC = 00000030 | IR = 14230001
T =  381.0 ps | State = BNE_1  | Next State = BNE_2  | PC = 00000030 | IR = 14230001
T =  390.0 ps | State = BNE_2  | Next State = FETCH  | PC = 00000030 | IR = 14230001
T =  400.0 ps | State = FETCH  | Next State = DECODE | PC = 00000030 | IR = 14230001
T =  410.0 ps | State = DECODE | Next State = R-Type | PC = 00000034 | IR = 14220003
T =  421.0 ps | State = BNE_1  | Next State = BNE_2  | PC = 00000034 | IR = 14220003
T =  430.0 ps | State = BNE_2  | Next State = FETCH  | PC = 00000034 | IR = 14220003
T =  440.0 ps | State = FETCH  | Next State = DECODE | PC = 00000040 | IR = 14220003
T =  450.0 ps | State = DECODE | Next State = R-Type | PC = 00000044 | IR = 00007820
T =  461.0 ps | State = ADD    | Next State = WB_alu | PC = 00000044 | IR = 00007820
T =  470.0 ps | State = WB_alu | Next State = FETCH  | PC = 00000044 | IR = 00007820
T =  480.0 ps | State = FETCH  | Next State = DECODE | PC = 00000044 | IR = 00007820
T =  490.0 ps | State = DECODE | Next State =I/J-Type| PC = 00000048 | IR = 3c0d1001
T =  501.0 ps | State = LUI    | Next State = WB_imm | PC = 00000048 | IR = 3c0d1001
T =  510.0 ps | State = WB_imm | Next State = FETCH  | PC = 00000048 | IR = 3c0d1001
T =  520.0 ps | State = FETCH  | Next State = DECODE | PC = 00000048 | IR = 3c0d1001
T =  530.0 ps | State = DECODE | Next State =I/J-Type| PC = 0000004c | IR = 35ad00c0
T =  541.0 ps | State = ORI    | Next State = WB_imm | PC = 0000004c | IR = 35ad00c0
T =  550.0 ps | State = WB_imm | Next State = FETCH  | PC = 0000004c | IR = 35ad00c0
T =  560.0 ps | State = FETCH  | Next State = DECODE | PC = 0000004c | IR = 35ad00c0
T =  570.0 ps | State = DECODE | Next State =I/J-Type| PC = 00000050 | IR = ada10000
T =  580.0 ps | State = SW     | Next State = WB_mem | PC = 00000050 | IR = ada10000
T =  590.0 ps | State = WB_mem | Next State = FETCH  | PC = 00000050 | IR = ada10000
T =  600.0 ps | State = FETCH  | Next State = DECODE | PC = 00000050 | IR = ada10000
T =  610.0 ps | State = DECODE | Next State = R-Type | PC = 00000054 | IR = 0000000d
BREAK INSTRUCTION FETCHED  615.0 ps
 
D i s p l a y i n g   C o n t e n t s   o f   R e g f i l e
R [  0 ]   =   00000000    |   R [         16 ]   =   xxxxxxxx
R [  1 ]   =   12345678    |   R [         17 ]   =   xxxxxxxx
R [  2 ]   =   87654321    |   R [         18 ]   =   xxxxxxxx
R [  3 ]   =   12345678    |   R [         19 ]   =   xxxxxxxx
R [  4 ]   =   xxxxxxxx    |   R [         20 ]   =   xxxxxxxx
R [  5 ]   =   xxxxxxxx    |   R [         21 ]   =   xxxxxxxx
R [  6 ]   =   xxxxxxxx    |   R [         22 ]   =   xxxxxxxx
R [  7 ]   =   xxxxxxxx    |   R [         23 ]   =   xxxxxxxx
R [  8 ]   =   xxxxxxxx    |   R [         24 ]   =   xxxxxxxx
R [  9 ]   =   xxxxxxxx    |   R [         25 ]   =   xxxxxxxx
R [ 10 ]   =   xxxxxxxx    |   R [         26 ]   =   xxxxxxxx
R [ 11 ]   =   xxxxxxxx    |   R [         27 ]   =   xxxxxxxx
R [ 12 ]   =   xxxxxxxx    |   R [         28 ]   =   xxxxxxxx
R [ 13 ]   =   100100c0    |   R [         29 ]   =   00000000
R [ 14 ]   =   00000000    |   R [         30 ]   =   xxxxxxxx
R [ 15 ]   =   00000000    |   R [         31 ]   =   xxxxxxxx
 
D i s p l a y i n g   C o n t e n t s   o f   D a t a   M e m o r y
d M e m [ 0c0 ]   =   0x12345678
d M e m [ 0c4 ]   =   0xxxxxxxxx
d M e m [ 0c8 ]   =   0xxxxxxxxx
d M e m [ 0cc ]   =   0xxxxxxxxx
d M e m [ 0d0 ]   =   0xxxxxxxxx
d M e m [ 0d4 ]   =   0xxxxxxxxx
d M e m [ 0d8 ]   =   0xxxxxxxxx
d M e m [ 0dc ]   =   0xxxxxxxxx
d M e m [ 0e0 ]   =   0xxxxxxxxx
d M e m [ 0e4 ]   =   0xxxxxxxxx
d M e m [ 0e8 ]   =   0xxxxxxxxx
d M e m [ 0ec ]   =   0xxxxxxxxx
d M e m [ 0f0 ]   =   0xxxxxxxxx
d M e m [ 0f4 ]   =   0xxxxxxxxx
d M e m [ 0f8 ]   =   0xxxxxxxxx
d M e m [ 0fc ]   =   0xxxxxxxxx
$finish called at time : 620 ns : File "C:/Users/Jesus Luciano/Desktop/MIPS_CPU/Execution_Unit_modified/Execution_Unit.srcs/sources_1/new/MCU.v" Line 929
