CPU_TB_Results/module_14.log
Vivado Simulator 2018.2
Time resolution is 1 ps
T =   30.0 ps | State = RESET  | Next State = FETCH  | PC = 00000000 | IR = 00000000
T =   40.0 ps | State = FETCH  | Next State = DECODE | PC = 00000000 | IR = 00000000
T =   50.0 ps | State = DECODE | Next State = R-Type | PC = 00000004 | IR = 0000001f
T =   61.0 ps | State = SETIE  | Next State = FETCH  | PC = 00000004 | IR = 0000001f
T =   70.0 ps | State = FETCH  | Next State = DECODE | PC = 00000004 | IR = 0000001f
T =   80.0 ps | State = DECODE | Next State =I/J-Type| PC = 00000008 | IR = 3c011234
T =   91.0 ps | State = LUI    | Next State = WB_imm | PC = 00000008 | IR = 3c011234
T =  100.0 ps | State = WB_imm | Next State = FETCH  | PC = 00000008 | IR = 3c011234
T =  110.0 ps | State = FETCH  | Next State = DECODE | PC = 00000008 | IR = 3c011234
T =  120.0 ps | State = DECODE | Next State =I/J-Type| PC = 0000000c | IR = 34215678
T =  131.0 ps | State = ORI    | Next State = WB_imm | PC = 0000000c | IR = 34215678
T =  140.0 ps | State = WB_imm | Next State = FETCH  | PC = 0000000c | IR = 34215678
T =  150.0 ps | State = FETCH  | Next State = DECODE | PC = 0000000c | IR = 34215678
T =  160.0 ps | State = DECODE | Next State =I/J-Type| PC = 00000010 | IR = 3c028765
T =  171.0 ps | State = LUI    | Next State = WB_imm | PC = 00000010 | IR = 3c028765
T =  180.0 ps | State = WB_imm | Next State = FETCH  | PC = 00000010 | IR = 3c028765
T =  190.0 ps | State = FETCH  | Next State = DECODE | PC = 00000010 | IR = 3c028765
T =  200.0 ps | Interrupt Request Signal HIGH
T =  200.0 ps | State = DECODE | Next State =I/J-Type| PC = 00000014 | IR = 34424321
T =  211.0 ps | State = ORI    | Next State = WB_imm | PC = 00000014 | IR = 34424321
T =  220.0 ps | State = WB_imm | Next State = FETCH  | PC = 00000014 | IR = 34424321
T =  230.0 ps | State = FETCH  | Next State = INTR_1 | PC = 00000014 | IR = 34424321
T =  240.0 ps | State = INTR_1 | Next State = INTR_2 | PC = 00000014 | IR = 34424321
T =  250.0 ps | State = INTR_2 | Next State = INTR_3 | PC = 00000014 | IR = 34424321
T =  260.0 ps | State = INTR_3 | Next State = INTR_4 | PC = 00000014 | IR = 34424321
T =  270.0 ps | State = INTR_4 | Next State = INTR_5 | PC = 00000014 | IR = 34424321
T =  280.0 ps | State = INTR_5 | Next State = INTR_6 | PC = 00000014 | IR = 34424321
T =  290.0 ps | State = INTR_6 | Next State = INTR_7 | PC = 00000014 | IR = 34424321
T =  300.0 ps | State = INTR_7 | Next State = FETCH  | PC = 00000014 | IR = 34424321
 
D i s p l a y i n g   C o n t e n t s   o f   R e g f i l e
R [  0 ]   =   00000000    |   R [ 16 ]   =   xxxxxxxx
R [  1 ]   =   12345678    |   R [ 17 ]   =   xxxxxxxx
R [  2 ]   =   87654321    |   R [ 18 ]   =   xxxxxxxx
R [  3 ]   =   xxxxxxxx    |   R [ 19 ]   =   xxxxxxxx
R [  4 ]   =   xxxxxxxx    |   R [ 20 ]   =   xxxxxxxx
R [  5 ]   =   xxxxxxxx    |   R [ 21 ]   =   xxxxxxxx
R [  6 ]   =   xxxxxxxx    |   R [ 22 ]   =   xxxxxxxx
R [  7 ]   =   xxxxxxxx    |   R [ 23 ]   =   xxxxxxxx
R [  8 ]   =   xxxxxxxx    |   R [ 24 ]   =   xxxxxxxx
R [  9 ]   =   xxxxxxxx    |   R [ 25 ]   =   xxxxxxxx
R [ 10 ]   =   xxxxxxxx    |   R [ 26 ]   =   xxxxxxxx
R [ 11 ]   =   xxxxxxxx    |   R [ 27 ]   =   xxxxxxxx
R [ 12 ]   =   xxxxxxxx    |   R [ 28 ]   =   xxxxxxxx
R [ 13 ]   =   xxxxxxxx    |   R [ 29 ]   =   000003f4
R [ 14 ]   =   xxxxxxxx    |   R [ 30 ]   =   xxxxxxxx
R [ 15 ]   =   xxxxxxxx    |   R [ 31 ]   =   xxxxxxxx
T =  300.0 ps | Interrupt Acknowledge Signal Received
T =  300.0 ps | Interrupt Request Signal LOW
T =  310.0 ps | State = FETCH  | Next State = DECODE | PC = 00000200 | IR = 34424321
T =  320.0 ps | State = DECODE | Next State =I/J-Type| PC = 00000204 | IR = 3c101001
T =  331.0 ps | State = LUI    | Next State = WB_imm | PC = 00000204 | IR = 3c101001
T =  340.0 ps | State = WB_imm | Next State = FETCH  | PC = 00000204 | IR = 3c101001
T =  350.0 ps | State = FETCH  | Next State = DECODE | PC = 00000204 | IR = 3c101001
T =  360.0 ps | State = DECODE | Next State =I/J-Type| PC = 00000208 | IR = 361000c0
T =  371.0 ps | State = ORI    | Next State = WB_imm | PC = 00000208 | IR = 361000c0
T =  380.0 ps | State = WB_imm | Next State = FETCH  | PC = 00000208 | IR = 361000c0
T =  390.0 ps | State = FETCH  | Next State = DECODE | PC = 00000208 | IR = 361000c0
T =  400.0 ps | State = DECODE | Next State =I/J-Type| PC = 0000020c | IR = 3c118000
T =  411.0 ps | State = LUI    | Next State = WB_imm | PC = 0000020c | IR = 3c118000
T =  420.0 ps | State = WB_imm | Next State = FETCH  | PC = 0000020c | IR = 3c118000
T =  430.0 ps | State = FETCH  | Next State = DECODE | PC = 0000020c | IR = 3c118000
T =  440.0 ps | State = DECODE | Next State =I/J-Type| PC = 00000210 | IR = 3631ffff
T =  451.0 ps | State = ORI    | Next State = WB_imm | PC = 00000210 | IR = 3631ffff
T =  460.0 ps | State = WB_imm | Next State = FETCH  | PC = 00000210 | IR = 3631ffff
T =  470.0 ps | State = FETCH  | Next State = DECODE | PC = 00000210 | IR = 3631ffff
T =  480.0 ps | State = DECODE | Next State =I/J-Type| PC = 00000214 | IR = 20120010
T =  491.0 ps | State = ADDI   | Next State = WB_imm | PC = 00000214 | IR = 20120010
T =  500.0 ps | State = WB_imm | Next State = FETCH  | PC = 00000214 | IR = 20120010
T =  510.0 ps | State = FETCH  | Next State = DECODE | PC = 00000214 | IR = 20120010
T =  520.0 ps | State = DECODE | Next State =I/J-Type| PC = 00000218 | IR = 76110000
T =  530.0 ps | State =OUTPUT_1| Next State =OUTPUT_2| PC = 00000218 | IR = 76110000
T =  540.0 ps | State =OUTPUT_2| Next State = FETCH  | PC = 00000218 | IR = 76110000
T =  550.0 ps | State = FETCH  | Next State = DECODE | PC = 00000218 | IR = 76110000
T =  560.0 ps | State = DECODE | Next State = R-Type | PC = 0000021c | IR = 00118883
T =  571.0 ps | State = SRA    | Next State = WB_alu | PC = 0000021c | IR = 00118883
T =  580.0 ps | State = WB_alu | Next State = FETCH  | PC = 0000021c | IR = 00118883
T =  590.0 ps | State = FETCH  | Next State = DECODE | PC = 0000021c | IR = 00118883
T =  600.0 ps | State = DECODE | Next State =I/J-Type| PC = 00000220 | IR = 22100004
T =  611.0 ps | State = ADDI   | Next State = WB_imm | PC = 00000220 | IR = 22100004
T =  620.0 ps | State = WB_imm | Next State = FETCH  | PC = 00000220 | IR = 22100004
T =  630.0 ps | State = FETCH  | Next State = DECODE | PC = 00000220 | IR = 22100004
T =  640.0 ps | State = DECODE | Next State =I/J-Type| PC = 00000224 | IR = 2252ffff
T =  651.0 ps | State = ADDI   | Next State = WB_imm | PC = 00000224 | IR = 2252ffff
T =  660.0 ps | State = WB_imm | Next State = FETCH  | PC = 00000224 | IR = 2252ffff
T =  670.0 ps | State = FETCH  | Next State = DECODE | PC = 00000224 | IR = 2252ffff
T =  680.0 ps | State = DECODE | Next State = R-Type | PC = 00000228 | IR = 1640fffb
T =  691.0 ps | State = BNE_1  | Next State = BNE_2  | PC = 00000228 | IR = 1640fffb
T =  700.0 ps | State = BNE_2  | Next State = FETCH  | PC = 00000228 | IR = 1640fffb
T =  710.0 ps | State = FETCH  | Next State = DECODE | PC = 00000214 | IR = 1640fffb
T =  720.0 ps | State = DECODE | Next State =I/J-Type| PC = 00000218 | IR = 76110000
T =  730.0 ps | State =OUTPUT_1| Next State =OUTPUT_2| PC = 00000218 | IR = 76110000
T =  740.0 ps | State =OUTPUT_2| Next State = FETCH  | PC = 00000218 | IR = 76110000
T =  750.0 ps | State = FETCH  | Next State = DECODE | PC = 00000218 | IR = 76110000
T =  760.0 ps | State = DECODE | Next State = R-Type | PC = 0000021c | IR = 00118883
T =  771.0 ps | State = SRA    | Next State = WB_alu | PC = 0000021c | IR = 00118883
T =  780.0 ps | State = WB_alu | Next State = FETCH  | PC = 0000021c | IR = 00118883
T =  790.0 ps | State = FETCH  | Next State = DECODE | PC = 0000021c | IR = 00118883
T =  800.0 ps | State = DECODE | Next State =I/J-Type| PC = 00000220 | IR = 22100004
T =  811.0 ps | State = ADDI   | Next State = WB_imm | PC = 00000220 | IR = 22100004
T =  820.0 ps | State = WB_imm | Next State = FETCH  | PC = 00000220 | IR = 22100004
T =  830.0 ps | State = FETCH  | Next State = DECODE | PC = 00000220 | IR = 22100004
T =  840.0 ps | State = DECODE | Next State =I/J-Type| PC = 00000224 | IR = 2252ffff
T =  851.0 ps | State = ADDI   | Next State = WB_imm | PC = 00000224 | IR = 2252ffff
T =  860.0 ps | State = WB_imm | Next State = FETCH  | PC = 00000224 | IR = 2252ffff
T =  870.0 ps | State = FETCH  | Next State = DECODE | PC = 00000224 | IR = 2252ffff
T =  880.0 ps | State = DECODE | Next State = R-Type | PC = 00000228 | IR = 1640fffb
T =  891.0 ps | State = BNE_1  | Next State = BNE_2  | PC = 00000228 | IR = 1640fffb
T =  900.0 ps | State = BNE_2  | Next State = FETCH  | PC = 00000228 | IR = 1640fffb
T =  910.0 ps | State = FETCH  | Next State = DECODE | PC = 00000214 | IR = 1640fffb
T =  920.0 ps | State = DECODE | Next State =I/J-Type| PC = 00000218 | IR = 76110000
T =  930.0 ps | State =OUTPUT_1| Next State =OUTPUT_2| PC = 00000218 | IR = 76110000
T =  940.0 ps | State =OUTPUT_2| Next State = FETCH  | PC = 00000218 | IR = 76110000
T =  950.0 ps | State = FETCH  | Next State = DECODE | PC = 00000218 | IR = 76110000
T =  960.0 ps | State = DECODE | Next State = R-Type | PC = 0000021c | IR = 00118883
T =  971.0 ps | State = SRA    | Next State = WB_alu | PC = 0000021c | IR = 00118883
T =  980.0 ps | State = WB_alu | Next State = FETCH  | PC = 0000021c | IR = 00118883
T =  990.0 ps | State = FETCH  | Next State = DECODE | PC = 0000021c | IR = 00118883
T = 1000.0 ps | State = DECODE | Next State =I/J-Type| PC = 00000220 | IR = 22100004
T = 1011.0 ps | State = ADDI   | Next State = WB_imm | PC = 00000220 | IR = 22100004
T = 1020.0 ps | State = WB_imm | Next State = FETCH  | PC = 00000220 | IR = 22100004
T = 1030.0 ps | State = FETCH  | Next State = DECODE | PC = 00000220 | IR = 22100004
T = 1040.0 ps | State = DECODE | Next State =I/J-Type| PC = 00000224 | IR = 2252ffff
T = 1051.0 ps | State = ADDI   | Next State = WB_imm | PC = 00000224 | IR = 2252ffff
T = 1060.0 ps | State = WB_imm | Next State = FETCH  | PC = 00000224 | IR = 2252ffff
T = 1070.0 ps | State = FETCH  | Next State = DECODE | PC = 00000224 | IR = 2252ffff
T = 1080.0 ps | State = DECODE | Next State = R-Type | PC = 00000228 | IR = 1640fffb
T = 1091.0 ps | State = BNE_1  | Next State = BNE_2  | PC = 00000228 | IR = 1640fffb
T = 1100.0 ps | State = BNE_2  | Next State = FETCH  | PC = 00000228 | IR = 1640fffb
T = 1110.0 ps | State = FETCH  | Next State = DECODE | PC = 00000214 | IR = 1640fffb
T = 1120.0 ps | State = DECODE | Next State =I/J-Type| PC = 00000218 | IR = 76110000
T = 1130.0 ps | State =OUTPUT_1| Next State =OUTPUT_2| PC = 00000218 | IR = 76110000
T = 1140.0 ps | State =OUTPUT_2| Next State = FETCH  | PC = 00000218 | IR = 76110000
T = 1150.0 ps | State = FETCH  | Next State = DECODE | PC = 00000218 | IR = 76110000
T = 1160.0 ps | State = DECODE | Next State = R-Type | PC = 0000021c | IR = 00118883
T = 1171.0 ps | State = SRA    | Next State = WB_alu | PC = 0000021c | IR = 00118883
T = 1180.0 ps | State = WB_alu | Next State = FETCH  | PC = 0000021c | IR = 00118883
T = 1190.0 ps | State = FETCH  | Next State = DECODE | PC = 0000021c | IR = 00118883
T = 1200.0 ps | State = DECODE | Next State =I/J-Type| PC = 00000220 | IR = 22100004
T = 1211.0 ps | State = ADDI   | Next State = WB_imm | PC = 00000220 | IR = 22100004
T = 1220.0 ps | State = WB_imm | Next State = FETCH  | PC = 00000220 | IR = 22100004
T = 1230.0 ps | State = FETCH  | Next State = DECODE | PC = 00000220 | IR = 22100004
T = 1240.0 ps | State = DECODE | Next State =I/J-Type| PC = 00000224 | IR = 2252ffff
T = 1251.0 ps | State = ADDI   | Next State = WB_imm | PC = 00000224 | IR = 2252ffff
T = 1260.0 ps | State = WB_imm | Next State = FETCH  | PC = 00000224 | IR = 2252ffff
T = 1270.0 ps | State = FETCH  | Next State = DECODE | PC = 00000224 | IR = 2252ffff
T = 1280.0 ps | State = DECODE | Next State = R-Type | PC = 00000228 | IR = 1640fffb
T = 1291.0 ps | State = BNE_1  | Next State = BNE_2  | PC = 00000228 | IR = 1640fffb
T = 1300.0 ps | State = BNE_2  | Next State = FETCH  | PC = 00000228 | IR = 1640fffb
T = 1310.0 ps | State = FETCH  | Next State = DECODE | PC = 00000214 | IR = 1640fffb
T = 1320.0 ps | State = DECODE | Next State =I/J-Type| PC = 00000218 | IR = 76110000
T = 1330.0 ps | State =OUTPUT_1| Next State =OUTPUT_2| PC = 00000218 | IR = 76110000
T = 1340.0 ps | State =OUTPUT_2| Next State = FETCH  | PC = 00000218 | IR = 76110000
T = 1350.0 ps | State = FETCH  | Next State = DECODE | PC = 00000218 | IR = 76110000
T = 1360.0 ps | State = DECODE | Next State = R-Type | PC = 0000021c | IR = 00118883
T = 1371.0 ps | State = SRA    | Next State = WB_alu | PC = 0000021c | IR = 00118883
T = 1380.0 ps | State = WB_alu | Next State = FETCH  | PC = 0000021c | IR = 00118883
T = 1390.0 ps | State = FETCH  | Next State = DECODE | PC = 0000021c | IR = 00118883
T = 1400.0 ps | State = DECODE | Next State =I/J-Type| PC = 00000220 | IR = 22100004
T = 1411.0 ps | State = ADDI   | Next State = WB_imm | PC = 00000220 | IR = 22100004
T = 1420.0 ps | State = WB_imm | Next State = FETCH  | PC = 00000220 | IR = 22100004
T = 1430.0 ps | State = FETCH  | Next State = DECODE | PC = 00000220 | IR = 22100004
T = 1440.0 ps | State = DECODE | Next State =I/J-Type| PC = 00000224 | IR = 2252ffff
T = 1451.0 ps | State = ADDI   | Next State = WB_imm | PC = 00000224 | IR = 2252ffff
T = 1460.0 ps | State = WB_imm | Next State = FETCH  | PC = 00000224 | IR = 2252ffff
T = 1470.0 ps | State = FETCH  | Next State = DECODE | PC = 00000224 | IR = 2252ffff
T = 1480.0 ps | State = DECODE | Next State = R-Type | PC = 00000228 | IR = 1640fffb
T = 1491.0 ps | State = BNE_1  | Next State = BNE_2  | PC = 00000228 | IR = 1640fffb
T = 1500.0 ps | State = BNE_2  | Next State = FETCH  | PC = 00000228 | IR = 1640fffb
T = 1510.0 ps | State = FETCH  | Next State = DECODE | PC = 00000214 | IR = 1640fffb
T = 1520.0 ps | State = DECODE | Next State =I/J-Type| PC = 00000218 | IR = 76110000
T = 1530.0 ps | State =OUTPUT_1| Next State =OUTPUT_2| PC = 00000218 | IR = 76110000
T = 1540.0 ps | State =OUTPUT_2| Next State = FETCH  | PC = 00000218 | IR = 76110000
T = 1550.0 ps | State = FETCH  | Next State = DECODE | PC = 00000218 | IR = 76110000
T = 1560.0 ps | State = DECODE | Next State = R-Type | PC = 0000021c | IR = 00118883
T = 1571.0 ps | State = SRA    | Next State = WB_alu | PC = 0000021c | IR = 00118883
T = 1580.0 ps | State = WB_alu | Next State = FETCH  | PC = 0000021c | IR = 00118883
T = 1590.0 ps | State = FETCH  | Next State = DECODE | PC = 0000021c | IR = 00118883
T = 1600.0 ps | State = DECODE | Next State =I/J-Type| PC = 00000220 | IR = 22100004
T = 1611.0 ps | State = ADDI   | Next State = WB_imm | PC = 00000220 | IR = 22100004
T = 1620.0 ps | State = WB_imm | Next State = FETCH  | PC = 00000220 | IR = 22100004
T = 1630.0 ps | State = FETCH  | Next State = DECODE | PC = 00000220 | IR = 22100004
T = 1640.0 ps | State = DECODE | Next State =I/J-Type| PC = 00000224 | IR = 2252ffff
T = 1651.0 ps | State = ADDI   | Next State = WB_imm | PC = 00000224 | IR = 2252ffff
T = 1660.0 ps | State = WB_imm | Next State = FETCH  | PC = 00000224 | IR = 2252ffff
T = 1670.0 ps | State = FETCH  | Next State = DECODE | PC = 00000224 | IR = 2252ffff
T = 1680.0 ps | State = DECODE | Next State = R-Type | PC = 00000228 | IR = 1640fffb
T = 1691.0 ps | State = BNE_1  | Next State = BNE_2  | PC = 00000228 | IR = 1640fffb
T = 1700.0 ps | State = BNE_2  | Next State = FETCH  | PC = 00000228 | IR = 1640fffb
T = 1710.0 ps | State = FETCH  | Next State = DECODE | PC = 00000214 | IR = 1640fffb
T = 1720.0 ps | State = DECODE | Next State =I/J-Type| PC = 00000218 | IR = 76110000
T = 1730.0 ps | State =OUTPUT_1| Next State =OUTPUT_2| PC = 00000218 | IR = 76110000
T = 1740.0 ps | State =OUTPUT_2| Next State = FETCH  | PC = 00000218 | IR = 76110000
T = 1750.0 ps | State = FETCH  | Next State = DECODE | PC = 00000218 | IR = 76110000
T = 1760.0 ps | State = DECODE | Next State = R-Type | PC = 0000021c | IR = 00118883
T = 1771.0 ps | State = SRA    | Next State = WB_alu | PC = 0000021c | IR = 00118883
T = 1780.0 ps | State = WB_alu | Next State = FETCH  | PC = 0000021c | IR = 00118883
T = 1790.0 ps | State = FETCH  | Next State = DECODE | PC = 0000021c | IR = 00118883
T = 1800.0 ps | State = DECODE | Next State =I/J-Type| PC = 00000220 | IR = 22100004
T = 1811.0 ps | State = ADDI   | Next State = WB_imm | PC = 00000220 | IR = 22100004
T = 1820.0 ps | State = WB_imm | Next State = FETCH  | PC = 00000220 | IR = 22100004
T = 1830.0 ps | State = FETCH  | Next State = DECODE | PC = 00000220 | IR = 22100004
T = 1840.0 ps | State = DECODE | Next State =I/J-Type| PC = 00000224 | IR = 2252ffff
T = 1851.0 ps | State = ADDI   | Next State = WB_imm | PC = 00000224 | IR = 2252ffff
T = 1860.0 ps | State = WB_imm | Next State = FETCH  | PC = 00000224 | IR = 2252ffff
T = 1870.0 ps | State = FETCH  | Next State = DECODE | PC = 00000224 | IR = 2252ffff
T = 1880.0 ps | State = DECODE | Next State = R-Type | PC = 00000228 | IR = 1640fffb
T = 1891.0 ps | State = BNE_1  | Next State = BNE_2  | PC = 00000228 | IR = 1640fffb
T = 1900.0 ps | State = BNE_2  | Next State = FETCH  | PC = 00000228 | IR = 1640fffb
T = 1910.0 ps | State = FETCH  | Next State = DECODE | PC = 00000214 | IR = 1640fffb
T = 1920.0 ps | State = DECODE | Next State =I/J-Type| PC = 00000218 | IR = 76110000
T = 1930.0 ps | State =OUTPUT_1| Next State =OUTPUT_2| PC = 00000218 | IR = 76110000
T = 1940.0 ps | State =OUTPUT_2| Next State = FETCH  | PC = 00000218 | IR = 76110000
T = 1950.0 ps | State = FETCH  | Next State = DECODE | PC = 00000218 | IR = 76110000
T = 1960.0 ps | State = DECODE | Next State = R-Type | PC = 0000021c | IR = 00118883
T = 1971.0 ps | State = SRA    | Next State = WB_alu | PC = 0000021c | IR = 00118883
T = 1980.0 ps | State = WB_alu | Next State = FETCH  | PC = 0000021c | IR = 00118883
T = 1990.0 ps | State = FETCH  | Next State = DECODE | PC = 0000021c | IR = 00118883
T = 2000.0 ps | State = DECODE | Next State =I/J-Type| PC = 00000220 | IR = 22100004
T = 2011.0 ps | State = ADDI   | Next State = WB_imm | PC = 00000220 | IR = 22100004
T = 2020.0 ps | State = WB_imm | Next State = FETCH  | PC = 00000220 | IR = 22100004
T = 2030.0 ps | State = FETCH  | Next State = DECODE | PC = 00000220 | IR = 22100004
T = 2040.0 ps | State = DECODE | Next State =I/J-Type| PC = 00000224 | IR = 2252ffff
T = 2051.0 ps | State = ADDI   | Next State = WB_imm | PC = 00000224 | IR = 2252ffff
T = 2060.0 ps | State = WB_imm | Next State = FETCH  | PC = 00000224 | IR = 2252ffff
T = 2070.0 ps | State = FETCH  | Next State = DECODE | PC = 00000224 | IR = 2252ffff
T = 2080.0 ps | State = DECODE | Next State = R-Type | PC = 00000228 | IR = 1640fffb
T = 2091.0 ps | State = BNE_1  | Next State = BNE_2  | PC = 00000228 | IR = 1640fffb
T = 2100.0 ps | State = BNE_2  | Next State = FETCH  | PC = 00000228 | IR = 1640fffb
T = 2110.0 ps | State = FETCH  | Next State = DECODE | PC = 00000214 | IR = 1640fffb
T = 2120.0 ps | State = DECODE | Next State =I/J-Type| PC = 00000218 | IR = 76110000
T = 2130.0 ps | State =OUTPUT_1| Next State =OUTPUT_2| PC = 00000218 | IR = 76110000
T = 2140.0 ps | State =OUTPUT_2| Next State = FETCH  | PC = 00000218 | IR = 76110000
T = 2150.0 ps | State = FETCH  | Next State = DECODE | PC = 00000218 | IR = 76110000
T = 2160.0 ps | State = DECODE | Next State = R-Type | PC = 0000021c | IR = 00118883
T = 2171.0 ps | State = SRA    | Next State = WB_alu | PC = 0000021c | IR = 00118883
T = 2180.0 ps | State = WB_alu | Next State = FETCH  | PC = 0000021c | IR = 00118883
T = 2190.0 ps | State = FETCH  | Next State = DECODE | PC = 0000021c | IR = 00118883
T = 2200.0 ps | State = DECODE | Next State =I/J-Type| PC = 00000220 | IR = 22100004
T = 2211.0 ps | State = ADDI   | Next State = WB_imm | PC = 00000220 | IR = 22100004
T = 2220.0 ps | State = WB_imm | Next State = FETCH  | PC = 00000220 | IR = 22100004
T = 2230.0 ps | State = FETCH  | Next State = DECODE | PC = 00000220 | IR = 22100004
T = 2240.0 ps | State = DECODE | Next State =I/J-Type| PC = 00000224 | IR = 2252ffff
T = 2251.0 ps | State = ADDI   | Next State = WB_imm | PC = 00000224 | IR = 2252ffff
T = 2260.0 ps | State = WB_imm | Next State = FETCH  | PC = 00000224 | IR = 2252ffff
T = 2270.0 ps | State = FETCH  | Next State = DECODE | PC = 00000224 | IR = 2252ffff
T = 2280.0 ps | State = DECODE | Next State = R-Type | PC = 00000228 | IR = 1640fffb
T = 2291.0 ps | State = BNE_1  | Next State = BNE_2  | PC = 00000228 | IR = 1640fffb
T = 2300.0 ps | State = BNE_2  | Next State = FETCH  | PC = 00000228 | IR = 1640fffb
T = 2310.0 ps | State = FETCH  | Next State = DECODE | PC = 00000214 | IR = 1640fffb
T = 2320.0 ps | State = DECODE | Next State =I/J-Type| PC = 00000218 | IR = 76110000
T = 2330.0 ps | State =OUTPUT_1| Next State =OUTPUT_2| PC = 00000218 | IR = 76110000
T = 2340.0 ps | State =OUTPUT_2| Next State = FETCH  | PC = 00000218 | IR = 76110000
T = 2350.0 ps | State = FETCH  | Next State = DECODE | PC = 00000218 | IR = 76110000
T = 2360.0 ps | State = DECODE | Next State = R-Type | PC = 0000021c | IR = 00118883
T = 2371.0 ps | State = SRA    | Next State = WB_alu | PC = 0000021c | IR = 00118883
T = 2380.0 ps | State = WB_alu | Next State = FETCH  | PC = 0000021c | IR = 00118883
T = 2390.0 ps | State = FETCH  | Next State = DECODE | PC = 0000021c | IR = 00118883
T = 2400.0 ps | State = DECODE | Next State =I/J-Type| PC = 00000220 | IR = 22100004
T = 2411.0 ps | State = ADDI   | Next State = WB_imm | PC = 00000220 | IR = 22100004
T = 2420.0 ps | State = WB_imm | Next State = FETCH  | PC = 00000220 | IR = 22100004
T = 2430.0 ps | State = FETCH  | Next State = DECODE | PC = 00000220 | IR = 22100004
T = 2440.0 ps | State = DECODE | Next State =I/J-Type| PC = 00000224 | IR = 2252ffff
T = 2451.0 ps | State = ADDI   | Next State = WB_imm | PC = 00000224 | IR = 2252ffff
T = 2460.0 ps | State = WB_imm | Next State = FETCH  | PC = 00000224 | IR = 2252ffff
T = 2470.0 ps | State = FETCH  | Next State = DECODE | PC = 00000224 | IR = 2252ffff
T = 2480.0 ps | State = DECODE | Next State = R-Type | PC = 00000228 | IR = 1640fffb
T = 2491.0 ps | State = BNE_1  | Next State = BNE_2  | PC = 00000228 | IR = 1640fffb
T = 2500.0 ps | State = BNE_2  | Next State = FETCH  | PC = 00000228 | IR = 1640fffb
T = 2510.0 ps | State = FETCH  | Next State = DECODE | PC = 00000214 | IR = 1640fffb
T = 2520.0 ps | State = DECODE | Next State =I/J-Type| PC = 00000218 | IR = 76110000
T = 2530.0 ps | State =OUTPUT_1| Next State =OUTPUT_2| PC = 00000218 | IR = 76110000
T = 2540.0 ps | State =OUTPUT_2| Next State = FETCH  | PC = 00000218 | IR = 76110000
T = 2550.0 ps | State = FETCH  | Next State = DECODE | PC = 00000218 | IR = 76110000
T = 2560.0 ps | State = DECODE | Next State = R-Type | PC = 0000021c | IR = 00118883
T = 2571.0 ps | State = SRA    | Next State = WB_alu | PC = 0000021c | IR = 00118883
T = 2580.0 ps | State = WB_alu | Next State = FETCH  | PC = 0000021c | IR = 00118883
T = 2590.0 ps | State = FETCH  | Next State = DECODE | PC = 0000021c | IR = 00118883
T = 2600.0 ps | State = DECODE | Next State =I/J-Type| PC = 00000220 | IR = 22100004
T = 2611.0 ps | State = ADDI   | Next State = WB_imm | PC = 00000220 | IR = 22100004
T = 2620.0 ps | State = WB_imm | Next State = FETCH  | PC = 00000220 | IR = 22100004
T = 2630.0 ps | State = FETCH  | Next State = DECODE | PC = 00000220 | IR = 22100004
T = 2640.0 ps | State = DECODE | Next State =I/J-Type| PC = 00000224 | IR = 2252ffff
T = 2651.0 ps | State = ADDI   | Next State = WB_imm | PC = 00000224 | IR = 2252ffff
T = 2660.0 ps | State = WB_imm | Next State = FETCH  | PC = 00000224 | IR = 2252ffff
T = 2670.0 ps | State = FETCH  | Next State = DECODE | PC = 00000224 | IR = 2252ffff
T = 2680.0 ps | State = DECODE | Next State = R-Type | PC = 00000228 | IR = 1640fffb
T = 2691.0 ps | State = BNE_1  | Next State = BNE_2  | PC = 00000228 | IR = 1640fffb
T = 2700.0 ps | State = BNE_2  | Next State = FETCH  | PC = 00000228 | IR = 1640fffb
T = 2710.0 ps | State = FETCH  | Next State = DECODE | PC = 00000214 | IR = 1640fffb
T = 2720.0 ps | State = DECODE | Next State =I/J-Type| PC = 00000218 | IR = 76110000
T = 2730.0 ps | State =OUTPUT_1| Next State =OUTPUT_2| PC = 00000218 | IR = 76110000
T = 2740.0 ps | State =OUTPUT_2| Next State = FETCH  | PC = 00000218 | IR = 76110000
T = 2750.0 ps | State = FETCH  | Next State = DECODE | PC = 00000218 | IR = 76110000
T = 2760.0 ps | State = DECODE | Next State = R-Type | PC = 0000021c | IR = 00118883
T = 2771.0 ps | State = SRA    | Next State = WB_alu | PC = 0000021c | IR = 00118883
T = 2780.0 ps | State = WB_alu | Next State = FETCH  | PC = 0000021c | IR = 00118883
T = 2790.0 ps | State = FETCH  | Next State = DECODE | PC = 0000021c | IR = 00118883
T = 2800.0 ps | State = DECODE | Next State =I/J-Type| PC = 00000220 | IR = 22100004
T = 2811.0 ps | State = ADDI   | Next State = WB_imm | PC = 00000220 | IR = 22100004
T = 2820.0 ps | State = WB_imm | Next State = FETCH  | PC = 00000220 | IR = 22100004
T = 2830.0 ps | State = FETCH  | Next State = DECODE | PC = 00000220 | IR = 22100004
T = 2840.0 ps | State = DECODE | Next State =I/J-Type| PC = 00000224 | IR = 2252ffff
T = 2851.0 ps | State = ADDI   | Next State = WB_imm | PC = 00000224 | IR = 2252ffff
T = 2860.0 ps | State = WB_imm | Next State = FETCH  | PC = 00000224 | IR = 2252ffff
T = 2870.0 ps | State = FETCH  | Next State = DECODE | PC = 00000224 | IR = 2252ffff
T = 2880.0 ps | State = DECODE | Next State = R-Type | PC = 00000228 | IR = 1640fffb
T = 2891.0 ps | State = BNE_1  | Next State = BNE_2  | PC = 00000228 | IR = 1640fffb
T = 2900.0 ps | State = BNE_2  | Next State = FETCH  | PC = 00000228 | IR = 1640fffb
T = 2910.0 ps | State = FETCH  | Next State = DECODE | PC = 00000214 | IR = 1640fffb
T = 2920.0 ps | State = DECODE | Next State =I/J-Type| PC = 00000218 | IR = 76110000
T = 2930.0 ps | State =OUTPUT_1| Next State =OUTPUT_2| PC = 00000218 | IR = 76110000
T = 2940.0 ps | State =OUTPUT_2| Next State = FETCH  | PC = 00000218 | IR = 76110000
T = 2950.0 ps | State = FETCH  | Next State = DECODE | PC = 00000218 | IR = 76110000
T = 2960.0 ps | State = DECODE | Next State = R-Type | PC = 0000021c | IR = 00118883
T = 2971.0 ps | State = SRA    | Next State = WB_alu | PC = 0000021c | IR = 00118883
T = 2980.0 ps | State = WB_alu | Next State = FETCH  | PC = 0000021c | IR = 00118883
T = 2990.0 ps | State = FETCH  | Next State = DECODE | PC = 0000021c | IR = 00118883
T = 3000.0 ps | State = DECODE | Next State =I/J-Type| PC = 00000220 | IR = 22100004
T = 3011.0 ps | State = ADDI   | Next State = WB_imm | PC = 00000220 | IR = 22100004
T = 3020.0 ps | State = WB_imm | Next State = FETCH  | PC = 00000220 | IR = 22100004
T = 3030.0 ps | State = FETCH  | Next State = DECODE | PC = 00000220 | IR = 22100004
T = 3040.0 ps | State = DECODE | Next State =I/J-Type| PC = 00000224 | IR = 2252ffff
T = 3051.0 ps | State = ADDI   | Next State = WB_imm | PC = 00000224 | IR = 2252ffff
T = 3060.0 ps | State = WB_imm | Next State = FETCH  | PC = 00000224 | IR = 2252ffff
T = 3070.0 ps | State = FETCH  | Next State = DECODE | PC = 00000224 | IR = 2252ffff
